{
    "rules": {
        "no-console": true,
        "disallow-rxjs-operators-full-import": true,

        "parameters-max-number": [
            true,
            15
        ],
        "no-inferrable-types": true
    }
}
